// Jest Snapshot v1, https://goo.gl/fbAQLP

exports[`Help Center test suite should render the component structure properly 1`] = `
ShallowWrapper {
  Symbol(enzyme.__root__): [Circular],
  Symbol(enzyme.__unrendered__): <HelpCenter />,
  Symbol(enzyme.__renderer__): Object {
    "batchedUpdates": [Function],
    "getNode": [Function],
    "render": [Function],
    "simulateError": [Function],
    "simulateEvent": [Function],
    "unmount": [Function],
  },
  Symbol(enzyme.__node__): Object {
    "instance": null,
    "key": undefined,
    "nodeType": "class",
    "props": Object {
      "menuItems": Array [
        Object {
          "name": "Careers",
          "uri": "Careers",
        },
        Object {
          "name": "Report Baggage Irregularity",
          "uri": "Report Baggage Irregularity",
        },
      ],
      "title": "Contact Us",
    },
    "ref": null,
    "rendered": null,
    "type": [Function],
  },
  Symbol(enzyme.__nodes__): Array [
    Object {
      "instance": null,
      "key": undefined,
      "nodeType": "class",
      "props": Object {
        "menuItems": Array [
          Object {
            "name": "Careers",
            "uri": "Careers",
          },
          Object {
            "name": "Report Baggage Irregularity",
            "uri": "Report Baggage Irregularity",
          },
        ],
        "title": "Contact Us",
      },
      "ref": null,
      "rendered": null,
      "type": [Function],
    },
  ],
  Symbol(enzyme.__options__): Object {
    "adapter": ReactSixteenAdapter {
      "options": Object {
        "enableComponentDidUpdateOnSetState": true,
        "lifecycles": Object {
          "componentDidUpdate": Object {
            "onSetState": true,
          },
          "getDerivedStateFromProps": true,
          "getSnapshotBeforeUpdate": true,
          "setState": Object {
            "skipsComponentDidUpdateOnNullish": true,
          },
        },
      },
    },
  },
}
`;
