// Jest Snapshot v1, https://goo.gl/fbAQLP

exports[`Toggle Button test suite should render the component structure properly 1`] = `
ShallowWrapper {
  Symbol(enzyme.__root__): [Circular],
  Symbol(enzyme.__unrendered__): <ToggleButton
    classes={Object {}}
    handleToggleClick={[Function]}
    isRoundTrip={true}
  />,
  Symbol(enzyme.__renderer__): Object {
    "batchedUpdates": [Function],
    "getNode": [Function],
    "render": [Function],
    "simulateError": [Function],
    "simulateEvent": [Function],
    "unmount": [Function],
  },
  Symbol(enzyme.__node__): Object {
    "instance": null,
    "key": undefined,
    "nodeType": "class",
    "props": Object {
      "alignItems": "center",
      "children": Array [
        <WithStyles(Grid)
          item={true}
        >
          <WithStyles(Typography)
            align="left"
            color="textPrimary"
          >
            Round Trip
          </WithStyles(Typography)>
        </WithStyles(Grid)>,
        <WithStyles(Grid)
          item={true}
        >
          <WithStyles(IconButton)
            onClick={[Function]}
          >
            <pure(ToggleOffIcon) />
          </WithStyles(IconButton)>
        </WithStyles(Grid)>,
        <WithStyles(Grid)
          item={true}
        >
          <WithStyles(Typography)
            align="left"
            color="textPrimary"
          >
            One Way
          </WithStyles(Typography)>
        </WithStyles(Grid)>,
      ],
      "container": true,
      "direction": "row",
      "justify": "flex-start",
    },
    "ref": null,
    "rendered": Array [
      Object {
        "instance": null,
        "key": undefined,
        "nodeType": "class",
        "props": Object {
          "children": <WithStyles(Typography)
            align="left"
            color="textPrimary"
          >
            Round Trip
          </WithStyles(Typography)>,
          "item": true,
        },
        "ref": null,
        "rendered": Object {
          "instance": null,
          "key": undefined,
          "nodeType": "class",
          "props": Object {
            "align": "left",
            "children": "Round Trip",
            "className": undefined,
            "color": "textPrimary",
          },
          "ref": null,
          "rendered": "Round Trip",
          "type": [Function],
        },
        "type": [Function],
      },
      Object {
        "instance": null,
        "key": undefined,
        "nodeType": "class",
        "props": Object {
          "children": Array [
            <WithStyles(IconButton)
              onClick={[Function]}
            >
              <pure(ToggleOffIcon) />
            </WithStyles(IconButton)>,
            false,
          ],
          "item": true,
        },
        "ref": null,
        "rendered": Array [
          Object {
            "instance": null,
            "key": undefined,
            "nodeType": "class",
            "props": Object {
              "children": <pure(ToggleOffIcon) />,
              "onClick": [Function],
            },
            "ref": null,
            "rendered": Object {
              "instance": null,
              "key": undefined,
              "nodeType": "class",
              "props": Object {
                "className": undefined,
              },
              "ref": null,
              "rendered": null,
              "type": [Function],
            },
            "type": [Function],
          },
          false,
        ],
        "type": [Function],
      },
      Object {
        "instance": null,
        "key": undefined,
        "nodeType": "class",
        "props": Object {
          "children": <WithStyles(Typography)
            align="left"
            color="textPrimary"
          >
            One Way
          </WithStyles(Typography)>,
          "item": true,
        },
        "ref": null,
        "rendered": Object {
          "instance": null,
          "key": undefined,
          "nodeType": "class",
          "props": Object {
            "align": "left",
            "children": "One Way",
            "className": undefined,
            "color": "textPrimary",
          },
          "ref": null,
          "rendered": "One Way",
          "type": [Function],
        },
        "type": [Function],
      },
    ],
    "type": [Function],
  },
  Symbol(enzyme.__nodes__): Array [
    Object {
      "instance": null,
      "key": undefined,
      "nodeType": "class",
      "props": Object {
        "alignItems": "center",
        "children": Array [
          <WithStyles(Grid)
            item={true}
          >
            <WithStyles(Typography)
              align="left"
              color="textPrimary"
            >
              Round Trip
            </WithStyles(Typography)>
          </WithStyles(Grid)>,
          <WithStyles(Grid)
            item={true}
          >
            <WithStyles(IconButton)
              onClick={[Function]}
            >
              <pure(ToggleOffIcon) />
            </WithStyles(IconButton)>
          </WithStyles(Grid)>,
          <WithStyles(Grid)
            item={true}
          >
            <WithStyles(Typography)
              align="left"
              color="textPrimary"
            >
              One Way
            </WithStyles(Typography)>
          </WithStyles(Grid)>,
        ],
        "container": true,
        "direction": "row",
        "justify": "flex-start",
      },
      "ref": null,
      "rendered": Array [
        Object {
          "instance": null,
          "key": undefined,
          "nodeType": "class",
          "props": Object {
            "children": <WithStyles(Typography)
              align="left"
              color="textPrimary"
            >
              Round Trip
            </WithStyles(Typography)>,
            "item": true,
          },
          "ref": null,
          "rendered": Object {
            "instance": null,
            "key": undefined,
            "nodeType": "class",
            "props": Object {
              "align": "left",
              "children": "Round Trip",
              "className": undefined,
              "color": "textPrimary",
            },
            "ref": null,
            "rendered": "Round Trip",
            "type": [Function],
          },
          "type": [Function],
        },
        Object {
          "instance": null,
          "key": undefined,
          "nodeType": "class",
          "props": Object {
            "children": Array [
              <WithStyles(IconButton)
                onClick={[Function]}
              >
                <pure(ToggleOffIcon) />
              </WithStyles(IconButton)>,
              false,
            ],
            "item": true,
          },
          "ref": null,
          "rendered": Array [
            Object {
              "instance": null,
              "key": undefined,
              "nodeType": "class",
              "props": Object {
                "children": <pure(ToggleOffIcon) />,
                "onClick": [Function],
              },
              "ref": null,
              "rendered": Object {
                "instance": null,
                "key": undefined,
                "nodeType": "class",
                "props": Object {
                  "className": undefined,
                },
                "ref": null,
                "rendered": null,
                "type": [Function],
              },
              "type": [Function],
            },
            false,
          ],
          "type": [Function],
        },
        Object {
          "instance": null,
          "key": undefined,
          "nodeType": "class",
          "props": Object {
            "children": <WithStyles(Typography)
              align="left"
              color="textPrimary"
            >
              One Way
            </WithStyles(Typography)>,
            "item": true,
          },
          "ref": null,
          "rendered": Object {
            "instance": null,
            "key": undefined,
            "nodeType": "class",
            "props": Object {
              "align": "left",
              "children": "One Way",
              "className": undefined,
              "color": "textPrimary",
            },
            "ref": null,
            "rendered": "One Way",
            "type": [Function],
          },
          "type": [Function],
        },
      ],
      "type": [Function],
    },
  ],
  Symbol(enzyme.__options__): Object {
    "adapter": ReactSixteenAdapter {
      "options": Object {
        "enableComponentDidUpdateOnSetState": true,
        "lifecycles": Object {
          "componentDidUpdate": Object {
            "onSetState": true,
          },
          "getDerivedStateFromProps": true,
          "getSnapshotBeforeUpdate": true,
          "setState": Object {
            "skipsComponentDidUpdateOnNullish": true,
          },
        },
      },
    },
  },
}
`;
