// Jest Snapshot v1, https://goo.gl/fbAQLP

exports[`Airport Card Manager test suite should render the component structure properly 1`] = `
ShallowWrapper {
  Symbol(enzyme.__root__): [Circular],
  Symbol(enzyme.__unrendered__): <WithStyles(LocationStep)
    departureAirportName="Test1"
    destinationAirportName="Test2"
    isSelected={true}
  />,
  Symbol(enzyme.__renderer__): Object {
    "batchedUpdates": [Function],
    "getNode": [Function],
    "render": [Function],
    "simulateError": [Function],
    "simulateEvent": [Function],
    "unmount": [Function],
  },
  Symbol(enzyme.__node__): Object {
    "instance": null,
    "key": undefined,
    "nodeType": "function",
    "props": Object {
      "classes": Object {
        "container": "LocationStep-container-1",
        "placePadding": "LocationStep-placePadding-2",
        "selectedCardText": "LocationStep-selectedCardText-3",
      },
      "departureAirportName": "Test1",
      "destinationAirportName": "Test2",
      "isSelected": true,
    },
    "ref": null,
    "rendered": null,
    "type": [Function],
  },
  Symbol(enzyme.__nodes__): Array [
    Object {
      "instance": null,
      "key": undefined,
      "nodeType": "function",
      "props": Object {
        "classes": Object {
          "container": "LocationStep-container-1",
          "placePadding": "LocationStep-placePadding-2",
          "selectedCardText": "LocationStep-selectedCardText-3",
        },
        "departureAirportName": "Test1",
        "destinationAirportName": "Test2",
        "isSelected": true,
      },
      "ref": null,
      "rendered": null,
      "type": [Function],
    },
  ],
  Symbol(enzyme.__options__): Object {
    "adapter": ReactSixteenAdapter {
      "options": Object {
        "enableComponentDidUpdateOnSetState": true,
        "lifecycles": Object {
          "componentDidUpdate": Object {
            "onSetState": true,
          },
          "getDerivedStateFromProps": true,
          "getSnapshotBeforeUpdate": true,
          "setState": Object {
            "skipsComponentDidUpdateOnNullish": true,
          },
        },
      },
    },
  },
}
`;
