// Jest Snapshot v1, https://goo.gl/fbAQLP

exports[`custom input test suite should match snapshot 1`] = `
ShallowWrapper {
  Symbol(enzyme.__root__): [Circular],
  Symbol(enzyme.__unrendered__): <CustomInput
    classes=""
    name="test"
    onChangeHandler={[MockFunction]}
    placeholder="test input"
    value="test"
  />,
  Symbol(enzyme.__renderer__): Object {
    "batchedUpdates": [Function],
    "getNode": [Function],
    "render": [Function],
    "simulateError": [Function],
    "simulateEvent": [Function],
    "unmount": [Function],
  },
  Symbol(enzyme.__node__): Object {
    "instance": null,
    "key": undefined,
    "nodeType": "class",
    "props": Object {
      "InputLabelProps": Object {
        "classes": Object {
          "root": undefined,
        },
        "error": true,
        "shrink": true,
      },
      "InputProps": Object {
        "classes": Object {
          "input": undefined,
        },
        "disableUnderline": true,
      },
      "className": "undefined ",
      "error": true,
      "fullWidth": true,
      "label": "",
      "name": "test",
      "onBlur": undefined,
      "onChange": [MockFunction],
      "placeholder": "test input",
      "required": false,
      "select": false,
      "value": "test",
      "variant": "standard",
    },
    "ref": null,
    "rendered": null,
    "type": [Function],
  },
  Symbol(enzyme.__nodes__): Array [
    Object {
      "instance": null,
      "key": undefined,
      "nodeType": "class",
      "props": Object {
        "InputLabelProps": Object {
          "classes": Object {
            "root": undefined,
          },
          "error": true,
          "shrink": true,
        },
        "InputProps": Object {
          "classes": Object {
            "input": undefined,
          },
          "disableUnderline": true,
        },
        "className": "undefined ",
        "error": true,
        "fullWidth": true,
        "label": "",
        "name": "test",
        "onBlur": undefined,
        "onChange": [MockFunction],
        "placeholder": "test input",
        "required": false,
        "select": false,
        "value": "test",
        "variant": "standard",
      },
      "ref": null,
      "rendered": null,
      "type": [Function],
    },
  ],
  Symbol(enzyme.__options__): Object {
    "adapter": ReactSixteenAdapter {
      "options": Object {
        "enableComponentDidUpdateOnSetState": true,
        "lifecycles": Object {
          "componentDidUpdate": Object {
            "onSetState": true,
          },
          "getDerivedStateFromProps": true,
          "getSnapshotBeforeUpdate": true,
          "setState": Object {
            "skipsComponentDidUpdateOnNullish": true,
          },
        },
      },
    },
  },
}
`;
