// Jest Snapshot v1, https://goo.gl/fbAQLP

exports[`billing info test suite should render billing info form 1`] = `
ShallowWrapper {
  Symbol(enzyme.__root__): [Circular],
  Symbol(enzyme.__unrendered__): <BillingInfo
    billingInfo={
      Object {
        "address": "",
        "city": "",
        "country": "",
        "errors": Object {
          "address": Array [],
          "city": Array [],
          "country": Array [],
          "firstName": Array [],
          "lastName": Array [],
          "postalCode": Array [],
        },
        "firstName": "",
        "lastName": "",
        "postalCode": "",
      }
    }
    classes={
      Object {
        "creditCardImg": Object {
          "& img": Object {
            "border": "2px solid #BCE0FD",
            "borderRadius": "5px",
            "height": "24px",
            "margin": 0,
            "padding": "2px",
            "width": "auto",
          },
          "marginBottom": "15px",
          "marginLeft": "25px",
        },
        "doubleInput": Object {
          "borderRight": "1px solid #BCE0FD",
        },
        "form": Object {
          "border": "1px solid #BCE0FD",
          "boxSizing": "border-box",
          "display": "block",
          "textAlign": "left",
        },
        "textField": Object {
          "borderBottom": "1px solid #BCE0FD",
        },
        "title": Object {
          "color": "#2699FB",
          "fontSize": "12pt",
          "fontWeight": 600,
          "marginBottom": "10px",
          "marginLeft": "15px",
          "textAlign": "left",
        },
      }
    }
    onChangeNumber={[MockFunction]}
    onChangeString={[MockFunction]}
  />,
  Symbol(enzyme.__renderer__): Object {
    "batchedUpdates": [Function],
    "getNode": [Function],
    "render": [Function],
    "simulateError": [Function],
    "simulateEvent": [Function],
    "unmount": [Function],
  },
  Symbol(enzyme.__node__): Object {
    "instance": null,
    "key": undefined,
    "nodeType": "function",
    "props": Object {
      "children": Array [
        <WithStyles(Typography)
          className={
            Object {
              "color": "#2699FB",
              "fontSize": "12pt",
              "fontWeight": 600,
              "marginBottom": "10px",
              "marginLeft": "15px",
              "textAlign": "left",
            }
          }
        >
          Card Billing Info
        </WithStyles(Typography)>,
        <WithStyles(FormControl)
          className={
            Object {
              "border": "1px solid #BCE0FD",
              "boxSizing": "border-box",
              "display": "block",
              "textAlign": "left",
            }
          }
          fullWidth={true}
        >
          <WithStyles(CustomInput)
            className={
              Object {
                "borderBottom": "1px solid #BCE0FD",
              }
            }
            errors={Array []}
            name="firstName"
            onChangeHandler={[Function]}
            placeholder="First Name"
            value=""
          />
          <WithStyles(CustomInput)
            className={
              Object {
                "borderBottom": "1px solid #BCE0FD",
              }
            }
            errors={Array []}
            name="lastName"
            onChangeHandler={[Function]}
            placeholder="Last Name"
            value=""
          />
          <WithStyles(CustomInput)
            className={
              Object {
                "borderBottom": "1px solid #BCE0FD",
              }
            }
            errors={Array []}
            name="address"
            onChangeHandler={[Function]}
            placeholder="Address"
            value=""
          />
          <WithStyles(Grid)
            container={true}
          >
            <WithStyles(Grid)
              item={true}
              xs={6}
            >
              <WithStyles(CustomInput)
                className="[object Object] [object Object]"
                errors={Array []}
                name="city"
                onChangeHandler={[Function]}
                placeholder="City"
                value=""
              />
            </WithStyles(Grid)>
            <WithStyles(Grid)
              item={true}
              xs={6}
            >
              <WithStyles(CustomInput)
                className={
                  Object {
                    "borderBottom": "1px solid #BCE0FD",
                  }
                }
                errors={Array []}
                name="postalCode"
                onChangeHandler={[Function]}
                placeholder="Postal Code"
                value=""
              />
            </WithStyles(Grid)>
          </WithStyles(Grid)>
          <WithStyles(CustomInput)
            errors={Array []}
            name="country"
            onChangeHandler={[Function]}
            placeholder="Country"
            value=""
          />
        </WithStyles(FormControl)>,
      ],
    },
    "ref": null,
    "rendered": Array [
      Object {
        "instance": null,
        "key": undefined,
        "nodeType": "class",
        "props": Object {
          "children": "Card Billing Info",
          "className": Object {
            "color": "#2699FB",
            "fontSize": "12pt",
            "fontWeight": 600,
            "marginBottom": "10px",
            "marginLeft": "15px",
            "textAlign": "left",
          },
        },
        "ref": null,
        "rendered": "Card Billing Info",
        "type": [Function],
      },
      Object {
        "instance": null,
        "key": undefined,
        "nodeType": "class",
        "props": Object {
          "children": Array [
            <WithStyles(CustomInput)
              className={
                Object {
                  "borderBottom": "1px solid #BCE0FD",
                }
              }
              errors={Array []}
              name="firstName"
              onChangeHandler={[Function]}
              placeholder="First Name"
              value=""
            />,
            <WithStyles(CustomInput)
              className={
                Object {
                  "borderBottom": "1px solid #BCE0FD",
                }
              }
              errors={Array []}
              name="lastName"
              onChangeHandler={[Function]}
              placeholder="Last Name"
              value=""
            />,
            <WithStyles(CustomInput)
              className={
                Object {
                  "borderBottom": "1px solid #BCE0FD",
                }
              }
              errors={Array []}
              name="address"
              onChangeHandler={[Function]}
              placeholder="Address"
              value=""
            />,
            <WithStyles(Grid)
              container={true}
            >
              <WithStyles(Grid)
                item={true}
                xs={6}
              >
                <WithStyles(CustomInput)
                  className="[object Object] [object Object]"
                  errors={Array []}
                  name="city"
                  onChangeHandler={[Function]}
                  placeholder="City"
                  value=""
                />
              </WithStyles(Grid)>
              <WithStyles(Grid)
                item={true}
                xs={6}
              >
                <WithStyles(CustomInput)
                  className={
                    Object {
                      "borderBottom": "1px solid #BCE0FD",
                    }
                  }
                  errors={Array []}
                  name="postalCode"
                  onChangeHandler={[Function]}
                  placeholder="Postal Code"
                  value=""
                />
              </WithStyles(Grid)>
            </WithStyles(Grid)>,
            <WithStyles(CustomInput)
              errors={Array []}
              name="country"
              onChangeHandler={[Function]}
              placeholder="Country"
              value=""
            />,
          ],
          "className": Object {
            "border": "1px solid #BCE0FD",
            "boxSizing": "border-box",
            "display": "block",
            "textAlign": "left",
          },
          "fullWidth": true,
        },
        "ref": null,
        "rendered": Array [
          Object {
            "instance": null,
            "key": undefined,
            "nodeType": "class",
            "props": Object {
              "className": Object {
                "borderBottom": "1px solid #BCE0FD",
              },
              "errors": Array [],
              "name": "firstName",
              "onChangeHandler": [Function],
              "placeholder": "First Name",
              "value": "",
            },
            "ref": null,
            "rendered": null,
            "type": [Function],
          },
          Object {
            "instance": null,
            "key": undefined,
            "nodeType": "class",
            "props": Object {
              "className": Object {
                "borderBottom": "1px solid #BCE0FD",
              },
              "errors": Array [],
              "name": "lastName",
              "onChangeHandler": [Function],
              "placeholder": "Last Name",
              "value": "",
            },
            "ref": null,
            "rendered": null,
            "type": [Function],
          },
          Object {
            "instance": null,
            "key": undefined,
            "nodeType": "class",
            "props": Object {
              "className": Object {
                "borderBottom": "1px solid #BCE0FD",
              },
              "errors": Array [],
              "name": "address",
              "onChangeHandler": [Function],
              "placeholder": "Address",
              "value": "",
            },
            "ref": null,
            "rendered": null,
            "type": [Function],
          },
          Object {
            "instance": null,
            "key": undefined,
            "nodeType": "class",
            "props": Object {
              "children": Array [
                <WithStyles(Grid)
                  item={true}
                  xs={6}
                >
                  <WithStyles(CustomInput)
                    className="[object Object] [object Object]"
                    errors={Array []}
                    name="city"
                    onChangeHandler={[Function]}
                    placeholder="City"
                    value=""
                  />
                </WithStyles(Grid)>,
                <WithStyles(Grid)
                  item={true}
                  xs={6}
                >
                  <WithStyles(CustomInput)
                    className={
                      Object {
                        "borderBottom": "1px solid #BCE0FD",
                      }
                    }
                    errors={Array []}
                    name="postalCode"
                    onChangeHandler={[Function]}
                    placeholder="Postal Code"
                    value=""
                  />
                </WithStyles(Grid)>,
              ],
              "container": true,
            },
            "ref": null,
            "rendered": Array [
              Object {
                "instance": null,
                "key": undefined,
                "nodeType": "class",
                "props": Object {
                  "children": <WithStyles(CustomInput)
                    className="[object Object] [object Object]"
                    errors={Array []}
                    name="city"
                    onChangeHandler={[Function]}
                    placeholder="City"
                    value=""
                  />,
                  "item": true,
                  "xs": 6,
                },
                "ref": null,
                "rendered": Object {
                  "instance": null,
                  "key": undefined,
                  "nodeType": "class",
                  "props": Object {
                    "className": "[object Object] [object Object]",
                    "errors": Array [],
                    "name": "city",
                    "onChangeHandler": [Function],
                    "placeholder": "City",
                    "value": "",
                  },
                  "ref": null,
                  "rendered": null,
                  "type": [Function],
                },
                "type": [Function],
              },
              Object {
                "instance": null,
                "key": undefined,
                "nodeType": "class",
                "props": Object {
                  "children": <WithStyles(CustomInput)
                    className={
                      Object {
                        "borderBottom": "1px solid #BCE0FD",
                      }
                    }
                    errors={Array []}
                    name="postalCode"
                    onChangeHandler={[Function]}
                    placeholder="Postal Code"
                    value=""
                  />,
                  "item": true,
                  "xs": 6,
                },
                "ref": null,
                "rendered": Object {
                  "instance": null,
                  "key": undefined,
                  "nodeType": "class",
                  "props": Object {
                    "className": Object {
                      "borderBottom": "1px solid #BCE0FD",
                    },
                    "errors": Array [],
                    "name": "postalCode",
                    "onChangeHandler": [Function],
                    "placeholder": "Postal Code",
                    "value": "",
                  },
                  "ref": null,
                  "rendered": null,
                  "type": [Function],
                },
                "type": [Function],
              },
            ],
            "type": [Function],
          },
          Object {
            "instance": null,
            "key": undefined,
            "nodeType": "class",
            "props": Object {
              "errors": Array [],
              "name": "country",
              "onChangeHandler": [Function],
              "placeholder": "Country",
              "value": "",
            },
            "ref": null,
            "rendered": null,
            "type": [Function],
          },
        ],
        "type": [Function],
      },
    ],
    "type": Symbol(react.fragment),
  },
  Symbol(enzyme.__nodes__): Array [
    Object {
      "instance": null,
      "key": undefined,
      "nodeType": "function",
      "props": Object {
        "children": Array [
          <WithStyles(Typography)
            className={
              Object {
                "color": "#2699FB",
                "fontSize": "12pt",
                "fontWeight": 600,
                "marginBottom": "10px",
                "marginLeft": "15px",
                "textAlign": "left",
              }
            }
          >
            Card Billing Info
          </WithStyles(Typography)>,
          <WithStyles(FormControl)
            className={
              Object {
                "border": "1px solid #BCE0FD",
                "boxSizing": "border-box",
                "display": "block",
                "textAlign": "left",
              }
            }
            fullWidth={true}
          >
            <WithStyles(CustomInput)
              className={
                Object {
                  "borderBottom": "1px solid #BCE0FD",
                }
              }
              errors={Array []}
              name="firstName"
              onChangeHandler={[Function]}
              placeholder="First Name"
              value=""
            />
            <WithStyles(CustomInput)
              className={
                Object {
                  "borderBottom": "1px solid #BCE0FD",
                }
              }
              errors={Array []}
              name="lastName"
              onChangeHandler={[Function]}
              placeholder="Last Name"
              value=""
            />
            <WithStyles(CustomInput)
              className={
                Object {
                  "borderBottom": "1px solid #BCE0FD",
                }
              }
              errors={Array []}
              name="address"
              onChangeHandler={[Function]}
              placeholder="Address"
              value=""
            />
            <WithStyles(Grid)
              container={true}
            >
              <WithStyles(Grid)
                item={true}
                xs={6}
              >
                <WithStyles(CustomInput)
                  className="[object Object] [object Object]"
                  errors={Array []}
                  name="city"
                  onChangeHandler={[Function]}
                  placeholder="City"
                  value=""
                />
              </WithStyles(Grid)>
              <WithStyles(Grid)
                item={true}
                xs={6}
              >
                <WithStyles(CustomInput)
                  className={
                    Object {
                      "borderBottom": "1px solid #BCE0FD",
                    }
                  }
                  errors={Array []}
                  name="postalCode"
                  onChangeHandler={[Function]}
                  placeholder="Postal Code"
                  value=""
                />
              </WithStyles(Grid)>
            </WithStyles(Grid)>
            <WithStyles(CustomInput)
              errors={Array []}
              name="country"
              onChangeHandler={[Function]}
              placeholder="Country"
              value=""
            />
          </WithStyles(FormControl)>,
        ],
      },
      "ref": null,
      "rendered": Array [
        Object {
          "instance": null,
          "key": undefined,
          "nodeType": "class",
          "props": Object {
            "children": "Card Billing Info",
            "className": Object {
              "color": "#2699FB",
              "fontSize": "12pt",
              "fontWeight": 600,
              "marginBottom": "10px",
              "marginLeft": "15px",
              "textAlign": "left",
            },
          },
          "ref": null,
          "rendered": "Card Billing Info",
          "type": [Function],
        },
        Object {
          "instance": null,
          "key": undefined,
          "nodeType": "class",
          "props": Object {
            "children": Array [
              <WithStyles(CustomInput)
                className={
                  Object {
                    "borderBottom": "1px solid #BCE0FD",
                  }
                }
                errors={Array []}
                name="firstName"
                onChangeHandler={[Function]}
                placeholder="First Name"
                value=""
              />,
              <WithStyles(CustomInput)
                className={
                  Object {
                    "borderBottom": "1px solid #BCE0FD",
                  }
                }
                errors={Array []}
                name="lastName"
                onChangeHandler={[Function]}
                placeholder="Last Name"
                value=""
              />,
              <WithStyles(CustomInput)
                className={
                  Object {
                    "borderBottom": "1px solid #BCE0FD",
                  }
                }
                errors={Array []}
                name="address"
                onChangeHandler={[Function]}
                placeholder="Address"
                value=""
              />,
              <WithStyles(Grid)
                container={true}
              >
                <WithStyles(Grid)
                  item={true}
                  xs={6}
                >
                  <WithStyles(CustomInput)
                    className="[object Object] [object Object]"
                    errors={Array []}
                    name="city"
                    onChangeHandler={[Function]}
                    placeholder="City"
                    value=""
                  />
                </WithStyles(Grid)>
                <WithStyles(Grid)
                  item={true}
                  xs={6}
                >
                  <WithStyles(CustomInput)
                    className={
                      Object {
                        "borderBottom": "1px solid #BCE0FD",
                      }
                    }
                    errors={Array []}
                    name="postalCode"
                    onChangeHandler={[Function]}
                    placeholder="Postal Code"
                    value=""
                  />
                </WithStyles(Grid)>
              </WithStyles(Grid)>,
              <WithStyles(CustomInput)
                errors={Array []}
                name="country"
                onChangeHandler={[Function]}
                placeholder="Country"
                value=""
              />,
            ],
            "className": Object {
              "border": "1px solid #BCE0FD",
              "boxSizing": "border-box",
              "display": "block",
              "textAlign": "left",
            },
            "fullWidth": true,
          },
          "ref": null,
          "rendered": Array [
            Object {
              "instance": null,
              "key": undefined,
              "nodeType": "class",
              "props": Object {
                "className": Object {
                  "borderBottom": "1px solid #BCE0FD",
                },
                "errors": Array [],
                "name": "firstName",
                "onChangeHandler": [Function],
                "placeholder": "First Name",
                "value": "",
              },
              "ref": null,
              "rendered": null,
              "type": [Function],
            },
            Object {
              "instance": null,
              "key": undefined,
              "nodeType": "class",
              "props": Object {
                "className": Object {
                  "borderBottom": "1px solid #BCE0FD",
                },
                "errors": Array [],
                "name": "lastName",
                "onChangeHandler": [Function],
                "placeholder": "Last Name",
                "value": "",
              },
              "ref": null,
              "rendered": null,
              "type": [Function],
            },
            Object {
              "instance": null,
              "key": undefined,
              "nodeType": "class",
              "props": Object {
                "className": Object {
                  "borderBottom": "1px solid #BCE0FD",
                },
                "errors": Array [],
                "name": "address",
                "onChangeHandler": [Function],
                "placeholder": "Address",
                "value": "",
              },
              "ref": null,
              "rendered": null,
              "type": [Function],
            },
            Object {
              "instance": null,
              "key": undefined,
              "nodeType": "class",
              "props": Object {
                "children": Array [
                  <WithStyles(Grid)
                    item={true}
                    xs={6}
                  >
                    <WithStyles(CustomInput)
                      className="[object Object] [object Object]"
                      errors={Array []}
                      name="city"
                      onChangeHandler={[Function]}
                      placeholder="City"
                      value=""
                    />
                  </WithStyles(Grid)>,
                  <WithStyles(Grid)
                    item={true}
                    xs={6}
                  >
                    <WithStyles(CustomInput)
                      className={
                        Object {
                          "borderBottom": "1px solid #BCE0FD",
                        }
                      }
                      errors={Array []}
                      name="postalCode"
                      onChangeHandler={[Function]}
                      placeholder="Postal Code"
                      value=""
                    />
                  </WithStyles(Grid)>,
                ],
                "container": true,
              },
              "ref": null,
              "rendered": Array [
                Object {
                  "instance": null,
                  "key": undefined,
                  "nodeType": "class",
                  "props": Object {
                    "children": <WithStyles(CustomInput)
                      className="[object Object] [object Object]"
                      errors={Array []}
                      name="city"
                      onChangeHandler={[Function]}
                      placeholder="City"
                      value=""
                    />,
                    "item": true,
                    "xs": 6,
                  },
                  "ref": null,
                  "rendered": Object {
                    "instance": null,
                    "key": undefined,
                    "nodeType": "class",
                    "props": Object {
                      "className": "[object Object] [object Object]",
                      "errors": Array [],
                      "name": "city",
                      "onChangeHandler": [Function],
                      "placeholder": "City",
                      "value": "",
                    },
                    "ref": null,
                    "rendered": null,
                    "type": [Function],
                  },
                  "type": [Function],
                },
                Object {
                  "instance": null,
                  "key": undefined,
                  "nodeType": "class",
                  "props": Object {
                    "children": <WithStyles(CustomInput)
                      className={
                        Object {
                          "borderBottom": "1px solid #BCE0FD",
                        }
                      }
                      errors={Array []}
                      name="postalCode"
                      onChangeHandler={[Function]}
                      placeholder="Postal Code"
                      value=""
                    />,
                    "item": true,
                    "xs": 6,
                  },
                  "ref": null,
                  "rendered": Object {
                    "instance": null,
                    "key": undefined,
                    "nodeType": "class",
                    "props": Object {
                      "className": Object {
                        "borderBottom": "1px solid #BCE0FD",
                      },
                      "errors": Array [],
                      "name": "postalCode",
                      "onChangeHandler": [Function],
                      "placeholder": "Postal Code",
                      "value": "",
                    },
                    "ref": null,
                    "rendered": null,
                    "type": [Function],
                  },
                  "type": [Function],
                },
              ],
              "type": [Function],
            },
            Object {
              "instance": null,
              "key": undefined,
              "nodeType": "class",
              "props": Object {
                "errors": Array [],
                "name": "country",
                "onChangeHandler": [Function],
                "placeholder": "Country",
                "value": "",
              },
              "ref": null,
              "rendered": null,
              "type": [Function],
            },
          ],
          "type": [Function],
        },
      ],
      "type": Symbol(react.fragment),
    },
  ],
  Symbol(enzyme.__options__): Object {
    "adapter": ReactSixteenAdapter {
      "options": Object {
        "enableComponentDidUpdateOnSetState": true,
        "lifecycles": Object {
          "componentDidUpdate": Object {
            "onSetState": true,
          },
          "getDerivedStateFromProps": true,
          "getSnapshotBeforeUpdate": true,
          "setState": Object {
            "skipsComponentDidUpdateOnNullish": true,
          },
        },
      },
    },
  },
}
`;
